1 255 85 255
2 255 255 0
3 255 170 100
4 255 130 0 
5 255 85 0
6 90 0 0
7 170 170 0
8 100 0 100
9 0 160 0
10 0 50 0
11 170 255 0
12 160 210 0
13 85 170 127
14 0 156 0
15 190 190 190
16 0 0 255
255 0 0 0 

Nouvelle:
1 255 85 255
2 255 255 0
3 255 170 100
4 255 130 0
5 255 85 0
6 90 0 0
7 170 170 0
8 100 0 175
9 0 160 0
10 0 50 0
11 170 255 0
12 115 190 255
13 100 200 150
14 190 130 0
15 190 190 190
16 0 0 255
